\relax 
\providecommand\hyper@newdestlabel[2]{}
\providecommand\HyperFirstAtBeginDocument{\AtBeginDocument}
\HyperFirstAtBeginDocument{\ifx\hyper@anchor\@undefined
\global\let\oldnewlabel\newlabel
\gdef\newlabel#1#2{\newlabelxx{#1}#2}
\gdef\newlabelxx#1#2#3#4#5#6{\oldnewlabel{#1}{{#2}{#3}}}
\AtEndDocument{\ifx\hyper@anchor\@undefined
\let\newlabel\oldnewlabel
\fi}
\fi}
\global\let\hyper@last\relax 
\gdef\HyperFirstAtBeginDocument#1{#1}
\providecommand\HyField@AuxAddToFields[1]{}
\providecommand\HyField@AuxAddToCoFields[2]{}
\@writefile{toc}{\contentsline {section}{\numberline {1}Introduction}{1}{section.1}\protected@file@percent }
\@writefile{toc}{\contentsline {section}{\numberline {2}Recommendations}{1}{section.2}\protected@file@percent }
\@writefile{toc}{\contentsline {section}{\numberline {3}Site Analysis}{1}{section.3}\protected@file@percent }
\providecommand*\caption@xref[2]{\@setref\relax\@undefined{#1}}
\newlabel{fig:page1}{{1a}{1}{Satellite and Plan Views\relax }{figure.caption.1}{}}
\newlabel{sub@fig:page1}{{a}{1}{Satellite and Plan Views\relax }{figure.caption.1}{}}
\newlabel{fig:page2}{{1b}{1}{Section Views\relax }{figure.caption.1}{}}
\newlabel{sub@fig:page2}{{b}{1}{Section Views\relax }{figure.caption.1}{}}
\@writefile{lof}{\contentsline {figure}{\numberline {1}{\ignorespaces Original Drawings\relax }}{1}{figure.caption.1}\protected@file@percent }
\newlabel{fig:twopages}{{1}{1}{Original Drawings\relax }{figure.caption.1}{}}
\@writefile{toc}{\contentsline {section}{\numberline {4}Assumptions}{1}{section.4}\protected@file@percent }
\@writefile{toc}{\contentsline {section}{\numberline {5}Analysis}{2}{section.5}\protected@file@percent }
\@writefile{toc}{\contentsline {subsection}{\numberline {5.1}Bouyancy}{2}{subsection.5.1}\protected@file@percent }
\@writefile{toc}{\contentsline {subsection}{\numberline {5.2}Force and Moment Calculations}{2}{subsection.5.2}\protected@file@percent }
\@writefile{toc}{\contentsline {subsubsection}{\numberline {5.2.1}Soil Force on Bulkhead - Rankine's Theory}{2}{subsubsection.5.2.1}\protected@file@percent }
\@writefile{toc}{\contentsline {subsubsection}{\numberline {5.2.2}Water Force on Bulkhead}{2}{subsubsection.5.2.2}\protected@file@percent }
\@writefile{toc}{\contentsline {subsubsection}{\numberline {5.2.3}Seafloor Force on Bulkhead}{2}{subsubsection.5.2.3}\protected@file@percent }
\@writefile{toc}{\contentsline {section}{\numberline {6}Load cases}{3}{section.6}\protected@file@percent }
\@writefile{lof}{\contentsline {figure}{\numberline {2}{\ignorespaces 3 load cases to be run follow matrix below.\relax }}{3}{figure.caption.2}\protected@file@percent }
\@writefile{lof}{\contentsline {figure}{\numberline {3}{\ignorespaces Results of above FBD moment and force calculations.\relax }}{4}{figure.caption.3}\protected@file@percent }
\@writefile{toc}{\contentsline {subsection}{\numberline {6.1}Pile Design}{4}{subsection.6.1}\protected@file@percent }
\@writefile{toc}{\contentsline {section}{\numberline {7}Storm Considerations}{4}{section.7}\protected@file@percent }
\@writefile{toc}{\contentsline {subsubsection}{\numberline {7.0.1}Rain}{4}{subsubsection.7.0.1}\protected@file@percent }
\@writefile{lof}{\contentsline {figure}{\numberline {4}{\ignorespaces Average Rainfall in Caye Caulker, Belize\relax }}{4}{figure.caption.4}\protected@file@percent }
\newlabel{fig:rainfall}{{4}{4}{Average Rainfall in Caye Caulker, Belize\relax }{figure.caption.4}{}}
\@writefile{toc}{\contentsline {subsubsection}{\numberline {7.0.2}Hurricane Considerations}{4}{subsubsection.7.0.2}\protected@file@percent }
\@writefile{toc}{\contentsline {section}{\numberline {A}Load Case Tabulated Results}{5}{appendix.A}\protected@file@percent }
\@writefile{lot}{\contentsline {table}{\numberline {1}{\ignorespaces Load Case 1 Results\relax }}{5}{table.caption.5}\protected@file@percent }
\newlabel{fig:enter-label}{{1}{5}{Load Case 1 Results\relax }{table.caption.5}{}}
\@writefile{lot}{\contentsline {table}{\numberline {2}{\ignorespaces Load Case 2 Results\relax }}{6}{table.caption.6}\protected@file@percent }
\newlabel{fig:enter-label}{{2}{6}{Load Case 2 Results\relax }{table.caption.6}{}}
\@writefile{lot}{\contentsline {table}{\numberline {3}{\ignorespaces Load Case 3 Results\relax }}{7}{table.caption.7}\protected@file@percent }
\newlabel{fig:enter-label}{{3}{7}{Load Case 3 Results\relax }{table.caption.7}{}}
\@writefile{toc}{\contentsline {section}{\numberline {B}Pile Lateral Load Tables}{8}{appendix.B}\protected@file@percent }
\@writefile{lot}{\contentsline {table}{\numberline {4}{\ignorespaces 12" Round Pile Minimum Requirements - Metric\relax }}{8}{table.caption.8}\protected@file@percent }
\newlabel{pileM}{{4}{8}{12" Round Pile Minimum Requirements - Metric\relax }{table.caption.8}{}}
\@writefile{lot}{\contentsline {table}{\numberline {5}{\ignorespaces 12" Round Pile Minimum Requirements - Imperial\relax }}{9}{table.caption.9}\protected@file@percent }
\newlabel{pileI}{{5}{9}{12" Round Pile Minimum Requirements - Imperial\relax }{table.caption.9}{}}
\gdef \@abspage@last{9}
